{
    "host": "www.charlestonsw.com",
    "username": "serveradmin",
    "privateKeyFile": "/home/lcleveland/.ssh/id_rsa",
    "privateKeyPassFile": "/home/lcleveland/.pkpass",
    "path": "/var/www/html/paypal/"
}
